<svg width="26" height="31" viewBox="0 0 26 31" fill="none" xmlns="http://www.w3.org/2000/svg">
<path fill-rule="evenodd" clip-rule="evenodd" d="M0 0H18.2L26 7.75V31H0V0ZM16.9 2.58333V9.04167H23.4L16.9 2.58333ZM20 12.9333L6.93333 26H20V12.9333ZM6 15.7333C6 17.2797 7.2536 18.5333 8.8 18.5333C10.3464 18.5333 11.6 17.2797 11.6 15.7333C11.6 14.187 10.3464 12.9333 8.8 12.9333C7.2536 12.9333 6 14.187 6 15.7333Z" fill="currentColor"/>
</svg>
